Analyses Effects of Contraception
…
Model

m_hc_libido_controlled = brm(diary_libido_mean ~ contraception_hormonal +
                             age + net_income + relationship_duration_factor +
                              education_years +
                              bfi_extra + bfi_neuro + bfi_agree + bfi_consc + bfi_open +
                              religiosity,
                data = data, family = gaussian(),
                file = "m_hc_libido_controlled")

Summary

tidy(m_hc_libido_controlled, intervals = T, prob = 0.95)

## # A tibble: 21 x 5
##    term                                                 estimate std.error    lower  upper
##    <chr>                                                   <dbl>     <dbl>    <dbl>  <dbl>
##  1 b_Intercept                                           0.272     0.257   -0.230   0.783 
##  2 b_contraception_hormonalyes                           0.00491   0.0400  -0.0729  0.0836
##  3 b_age                                                 0.00315   0.00481 -0.00640 0.0130
##  4 b_net_incomeeuro_500_1000                             0.0957    0.0467   0.00442 0.185 
##  5 b_net_incomeeuro_1000_2000                            0.151     0.0646   0.0217  0.276 
##  6 b_net_incomeeuro_2000_3000                            0.0955    0.0975  -0.0915  0.286 
##  7 b_net_incomeeuro_gt_3000                             -0.0616    0.180   -0.422   0.296 
##  8 b_net_incomedont_tell                                 0.119     0.122   -0.118   0.365 
##  9 b_relationship_duration_factorPartnered_upto12months  0.412     0.0550   0.300   0.522 
## 10 b_relationship_duration_factorPartnered_upto28months  0.306     0.0530   0.200   0.411 
## # ... with 11 more rows
…
m_congruency_atrr_controlled = brm(attractiveness_partner ~
                          contraception_hormonal * congruent_contraception +
                             age + net_income + relationship_duration_factor +
                              education_years +
                              bfi_extra + bfi_neuro + bfi_agree + bfi_consc + bfi_open +
                              religiosity,
                data = data, family = gaussian(),
                file = "m_congruency_atrr_controlled")

Summary

tidy(m_congruency_atrr_controlled, intervals = T, prob = 0.95)

## # A tibble: 22 x 5
##    term                                                 estimate std.error   lower   upper
##    <chr>                                                   <dbl>     <dbl>   <dbl>   <dbl>
##  1 b_Intercept                                           3.21      0.374    2.49   3.92   
##  2 b_contraception_hormonalyes                           0.140     0.0911  -0.0380 0.315  
##  3 b_congruent_contraception1                            0.0995    0.0800  -0.0543 0.256  
##  4 b_age                                                -0.00364   0.00664 -0.0167 0.00946
##  5 b_net_incomeeuro_500_1000                             0.0471    0.0678  -0.0854 0.180  
##  6 b_net_incomeeuro_1000_2000                            0.153     0.0894  -0.0228 0.330  
##  7 b_net_incomeeuro_2000_3000                            0.185     0.124   -0.0577 0.429  
##  8 b_net_incomeeuro_gt_3000                              0.184     0.212   -0.229  0.604  
##  9 b_net_incomedont_tell                                -0.00308   0.180   -0.351  0.345  
## 10 b_relationship_duration_factorPartnered_upto28months  0.119     0.0763  -0.0285 0.269  
## # ... with 12 more rows
…
m_congruency_relsat_controlled = brm(relationship_satisfaction ~
                          contraception_hormonal * congruent_contraception +
                             age + net_income + relationship_duration_factor +
                              education_years +
                              bfi_extra + bfi_neuro + bfi_agree + bfi_consc + bfi_open +
                              religiosity,
                data = data, family = gaussian(),
                file = "m_congruency_relsat_controlled")

Summary

tidy(m_congruency_relsat_controlled, intervals = T, prob = 0.95)

## # A tibble: 22 x 5
##    term                                                 estimate std.error    lower   upper
##    <chr>                                                   <dbl>     <dbl>    <dbl>   <dbl>
##  1 b_Intercept                                           3.31      0.219    2.88    3.75   
##  2 b_contraception_hormonalyes                           0.0374    0.0508  -0.0627  0.137  
##  3 b_congruent_contraception1                           -0.0659    0.0448  -0.155   0.0235 
##  4 b_age                                                -0.00422   0.00375 -0.0115  0.00312
##  5 b_net_incomeeuro_500_1000                             0.0663    0.0384  -0.00964 0.142  
##  6 b_net_incomeeuro_1000_2000                           -0.00863   0.0496  -0.106   0.0859 
##  7 b_net_incomeeuro_2000_3000                            0.0254    0.0699  -0.109   0.165  
##  8 b_net_incomeeuro_gt_3000                              0.106     0.119   -0.123   0.337  
##  9 b_net_incomedont_tell                                -0.101     0.102   -0.300   0.0967 
## 10 b_relationship_duration_factorPartnered_upto28months  0.202     0.0431   0.116   0.285  
## # ... with 12 more rows
…
m_congruency_sexsat_controlled = brm(satisfaction_sexual_intercourse ~
                          contraception_hormonal * congruent_contraception +
                             age + net_income + relationship_duration_factor +
                              education_years +
                              bfi_extra + bfi_neuro + bfi_agree + bfi_consc + bfi_open +
                              religiosity,
                data = data, family = gaussian(),
                file = "m_congruency_sexsat_controlled")

Summary

tidy(m_congruency_sexsat_controlled, intervals = T, prob = 0.95)

## # A tibble: 22 x 5
##    term                                                 estimate std.error   lower  upper
##    <chr>                                                   <dbl>     <dbl>   <dbl>  <dbl>
##  1 b_Intercept                                           3.18      0.547    2.08   4.22  
##  2 b_contraception_hormonalyes                           0.116     0.127   -0.131  0.365 
##  3 b_congruent_contraception1                            0.0382    0.116   -0.184  0.268 
##  4 b_age                                                 0.00796   0.00941 -0.0103 0.0269
##  5 b_net_incomeeuro_500_1000                             0.0270    0.0972  -0.164  0.214 
##  6 b_net_incomeeuro_1000_2000                           -0.0811    0.125   -0.327  0.167 
##  7 b_net_incomeeuro_2000_3000                           -0.0788    0.178   -0.426  0.266 
##  8 b_net_incomeeuro_gt_3000                             -0.255     0.299   -0.834  0.318 
##  9 b_net_incomedont_tell                                -0.0385    0.253   -0.546  0.459 
## 10 b_relationship_duration_factorPartnered_upto28months -0.0178    0.106   -0.223  0.191 
## # ... with 12 more rows
…
m_congruency_libido_controlled = brm(diary_libido_mean ~
                          contraception_hormonal * congruent_contraception +
                             age + net_income + relationship_duration_factor +
                              education_years +
                              bfi_extra + bfi_neuro + bfi_agree + bfi_consc + bfi_open +
                              religiosity,
                data = data, family = gaussian(),
                file = "m_congruency_libido_controlled")

Summary

tidy(m_congruency_libido_controlled, intervals = T, prob = 0.95)

## # A tibble: 22 x 5
##    term                                                 estimate std.error    lower   upper
##    <chr>                                                   <dbl>     <dbl>    <dbl>   <dbl>
##  1 b_Intercept                                           1.07      0.310    0.482   1.68   
##  2 b_contraception_hormonalyes                          -0.0200    0.0734  -0.160   0.125  
##  3 b_congruent_contraception1                            0.0165    0.0632  -0.107   0.143  
##  4 b_age                                                -0.00462   0.00565 -0.0156  0.00655
##  5 b_net_incomeeuro_500_1000                             0.120     0.0543   0.0145  0.225  
##  6 b_net_incomeeuro_1000_2000                            0.144     0.0729   0.00346 0.291  
##  7 b_net_incomeeuro_2000_3000                            0.137     0.103   -0.0704  0.332  
##  8 b_net_incomeeuro_gt_3000                              0.0187    0.183   -0.332   0.374  
##  9 b_net_incomedont_tell                                 0.265     0.144   -0.0110  0.541  
## 10 b_relationship_duration_factorPartnered_upto28months -0.113     0.0604  -0.236   0.00168
## # ... with 12 more rows
…
m_congruency_sexfreqpen_controlled = brm(diary_sex_active_sex_sum ~
                        offset(log(number_of_days)) +
                        contraception_hormonal * congruent_contraception +
                        age + net_income + relationship_duration_factor +
                              education_years +
                              bfi_extra + bfi_neuro + bfi_agree + bfi_consc + bfi_open +
                              religiosity,
                data = data, family = poisson(),
                file = "m_congruency_sexfreqpen_controlled")

Summary

tidy(m_congruency_sexfreqpen_controlled, intervals = T, prob = 0.95)

## # A tibble: 21 x 5
##    term                                                 estimate std.error    lower    upper
##    <chr>                                                   <dbl>     <dbl>    <dbl>    <dbl>
##  1 b_Intercept                                          -1.84      0.191   -2.20    -1.46   
##  2 b_contraception_hormonalyes                           0.158     0.0459   0.0676   0.249  
##  3 b_congruent_contraception1                           -0.0743    0.0417  -0.155    0.00614
##  4 b_age                                                -0.00299   0.00344 -0.00968  0.00386
##  5 b_net_incomeeuro_500_1000                             0.144     0.0348   0.0751   0.213  
##  6 b_net_incomeeuro_1000_2000                            0.186     0.0473   0.0934   0.279  
##  7 b_net_incomeeuro_2000_3000                            0.379     0.0613   0.256    0.499  
##  8 b_net_incomeeuro_gt_3000                              0.0901    0.113   -0.140    0.307  
##  9 b_net_incomedont_tell                                 0.394     0.0776   0.234    0.537  
## 10 b_relationship_duration_factorPartnered_upto28months -0.0895    0.0359  -0.160   -0.0207 
## # ... with 11 more rows
…
m_congruency_sexfreq_controlled = brm(diary_sex_active_sum ~
                        offset(log(number_of_days)) +
                        contraception_hormonal * congruent_contraception +
                        age + net_income + relationship_duration_factor +
                              education_years +
                              bfi_extra + bfi_neuro + bfi_agree + bfi_consc + bfi_open +
                              religiosity,
                data = data, family = poisson(),
                file = "m_congruency_sexfreq_controlled")

Summary

tidy(m_congruency_sexfreq_controlled, intervals = T, prob = 0.95)

## # A tibble: 21 x 5
##    term                                                 estimate std.error   lower    upper
##    <chr>                                                   <dbl>     <dbl>   <dbl>    <dbl>
##  1 b_Intercept                                          -0.380     0.135   -0.645  -0.121  
##  2 b_contraception_hormonalyes                          -0.0433    0.0335  -0.110   0.0230 
##  3 b_congruent_contraception1                           -0.00154   0.0288  -0.0575  0.0550 
##  4 b_age                                                -0.0106    0.00252 -0.0157 -0.00577
##  5 b_net_incomeeuro_500_1000                             0.111     0.0243   0.0627  0.159  
##  6 b_net_incomeeuro_1000_2000                            0.0947    0.0328   0.0319  0.160  
##  7 b_net_incomeeuro_2000_3000                            0.270     0.0440   0.186   0.356  
##  8 b_net_incomeeuro_gt_3000                             -0.00722   0.0785  -0.161   0.144  
##  9 b_net_incomedont_tell                                 0.0912    0.0590  -0.0235  0.203  
## 10 b_relationship_duration_factorPartnered_upto28months -0.0723    0.0250  -0.120  -0.0212 
## # ... with 11 more rows
…
