Laura_datascanning
…
incongruent information about current contraceptive method and method used in the last three months

participants, who do not want to avoid pregnancy –> based on “pregnant_trying” > 1

data 

## # A tibble: 1,660 x 33
##    session   age education_years net_income bfi_agree bfi_consc bfi_open bfi_extra bfi_neuro religiosity
##    <chr>   <dbl>       <dbl+lbl> <chr+lbl>      <dbl>     <dbl>    <dbl>     <dbl>     <dbl>   <dbl+lbl>
##  1 _2efCh~    19               9 eur~ [ < ~      3.11      4         2.7      2.88      3.38 4 [4]      
##  2 _2sufS~    27              18 eur~ [500~      3.78      3.44      4.1      2.88      3.12 1 [1: nich~
##  3 _8e6Lc~    30              16 eur~ [100~      3.67      2.67      3.7      3.5       3    2 [2]      
##  4 _aeoL4~    22              16 eur~ [ < ~      4.11      3.33      3.6      2.5       2.5  4 [4]      
##  5 _BURDI~    25              18 eur~ [100~      3         3.67      3.8      4.62      3.25 6 [6: reli~
##  6 _EQ98z~    20              13 eur~ [500~      4.11      2.78      3.3      3.38      2    1 [1: nich~
##  7 _gDQME~    30              19 eur~ [100~      4.67      3.11      3.5      1.88      3.5  1 [1: nich~
##  8 _hvFZu~    25               5 eur~ [500~      4.56      4.33      4.3      3.75      3.12 1 [1: nich~
##  9 _ingg8~    27              20 eur~ [200~      4.44      4.33      3.9      3         1.88 5 [5]      
## 10 _istH5~    25              18 eur~ [ < ~      3.56      3.22      3.2      2.88      3.5  2 [2]      
## # ... with 1,650 more rows, and 23 more variables: pregnant_stress <dbl+lbl>,
## #   duration_relationship_years <dbl+lbl>, duration_relationship_month <dbl+lbl>,
## #   days_with_partner <dbl+lbl>, nights_with_partner <dbl+lbl>, soi_r_attitude <dbl>, soi_r_behavior <dbl>,
## #   soi_r_desire <dbl>, number_sexual_partner <dbl+lbl>, contraception_method <chr>,
## #   contraception_approach <fct>, contraception_method_broad <chr>, contraception_meeting_partner <dbl+lbl>,
## #   partner_attractiveness_face <dbl+lbl>, partner_attractiveness_body <dbl+lbl>,
## #   relationship_satisfaction_overall <dbl+lbl>, relationship_satisfaction_2 <dbl+lbl>,
## #   relationship_satisfaction_3 <dbl+lbl>, relationship_problems_R <dbl+lbl>,
## #   relationship_conflict_R <dbl+lbl>, satisfaction_sexual_intercourse <dbl+lbl>,
…
